Week 3 Lab: Exploring ggplot2
…
# A tibble: 6 × 8
  species island    bill_length_mm bill_depth_mm flipper_length_mm body_mass_g
  <fct>   <fct>              <dbl>         <dbl>             <int>       <int>
1 Adelie  Torgersen           39.1          18.7               181        3750
2 Adelie  Torgersen           39.5          17.4               186        3800
3 Adelie  Torgersen           40.3          18                 195        3250
4 Adelie  Torgersen           NA            NA                  NA          NA
5 Adelie  Torgersen           36.7          19.3               193        3450
6 Adelie  Torgersen           39.3          20.6               190        3650
# ℹ 2 more variables: sex <fct>, year <int>

penguins

# A tibble: 344 × 8
   species island    bill_length_mm bill_depth_mm flipper_length_mm body_mass_g
   <fct>   <fct>              <dbl>         <dbl>             <int>       <int>
 1 Adelie  Torgersen           39.1          18.7               181        3750
 2 Adelie  Torgersen           39.5          17.4               186        3800
 3 Adelie  Torgersen           40.3          18                 195        3250
 4 Adelie  Torgersen           NA            NA                  NA          NA
 5 Adelie  Torgersen           36.7          19.3               193        3450
 6 Adelie  Torgersen           39.3          20.6               190        3650
 7 Adelie  Torgersen           38.9          17.8               181        3625
 8 Adelie  Torgersen           39.2          19.6               195        4675
 9 Adelie  Torgersen           34.1          18.1               193        3475
10 Adelie  Torgersen           42            20.2               190        4250
# ℹ 334 more rows
# ℹ 2 more variables: sex <fct>, year <int>
…
1.3 Why Should You Jitter the Plot?

We noticed in the plain scatter that tons of points land on the same spot—many penguins of the same species have identical bill lengths. Let’s prove it:

penguins_clean %>%
  count(species, bill_length_mm) %>% 
  filter(n > 1) %>% 
  arrange(desc(n))

# A tibble: 84 × 3
   species bill_length_mm     n
   <fct>            <dbl> <int>
 1 Adelie            41.1     7
 2 Adelie            37.8     5
 3 Adelie            39.6     5
 4 Adelie            36       4
 5 Adelie            38.1     4
 6 Adelie            39.7     4
 7 Adelie            40.6     4
 8 Gentoo            45.2     4
 9 Gentoo            45.5     4
10 Gentoo            46.2     4
# ℹ 74 more rows
…
